\relax 
\@writefile{lof}{\contentsline {figure}{\numberline {1}{\ignorespaces Testcase-1 with output}}{4}}
\@writefile{lof}{\contentsline {figure}{\numberline {2}{\ignorespaces Testcase-2 with output}}{4}}
\@writefile{lof}{\contentsline {figure}{\numberline {3}{\ignorespaces Testcase-1 Energy vs Voltage graphs}}{5}}
\@writefile{lof}{\contentsline {figure}{\numberline {4}{\ignorespaces Testcase-1 EDP vs Voltage graphs}}{6}}
\@writefile{lof}{\contentsline {figure}{\numberline {5}{\ignorespaces Testcase-2 Energy vs Voltage graphs}}{7}}
\@writefile{lof}{\contentsline {figure}{\numberline {6}{\ignorespaces Testcase-2 EDP vs Voltage graphs}}{8}}
